digraph G{
 graph [rankdir="LR"];
 subgraph CLUSTER_CVXPROVIDER {
  	graph [rankdir="TB"];
  	node [fontsize=14 style=bold color="khaki"];
		CVXPROVIDER_CVX_TMPOFFPRACT [label="<tb>CVX_TMPOFFPRACT |<cvx_tmpoffpract_id>cvx_tmpoffpract_id|<offnum>offnum|<associate_id>associate_id|<known_by>known_by|<offname>offname|<dba_name>dba_name|<last_name>last_name|<middle_name>middle_name|<first_name>first_name|<salutation>salutation|<pedigree>pedigree|<gender_code>gender_code|<practitioner_num>practitioner_num|<active_date>active_date|<term_date>term_date|<practice_start>practice_start|<practice_term>practice_term|<practice_primary>practice_primary|<practitioner_active>practitioner_active|<practitioner_term>practitioner_term|<practitioner_deleted>practitioner_deleted|<prac_npi>prac_npi|<payee_npi>payee_npi|<list_code>list_code|<tower_code>tower_code|<specialty_tray>specialty_tray|<own_lab>own_lab|<provider_ud>provider_ud|<discount>discount|<epo>epo|<ppo>ppo" shape="record"];
 		CVXPROVIDER_CVX_ACTIVE_PRACTICE_OFFICES [label="<tb>CVX_ACTIVE_PRACTICE_OFFICES |<cvx_active_practice_offices_id>cvx_active_practice_offices_id|<npi_payee>npi_payee|<offnum>offnum|<offname>offname|<phone>phone|<phone_extension>phone_extension|<address1>address1|<address2>address2|<city>city|<county>county|<state>state|<country>country|<zip>zip|<fax>fax|<active>active" shape="record"];
 		CVXPROVIDER_CVX_ACTIVE_VENDORS [label="<tb>CVX_ACTIVE_VENDORS |<cvx_active_vendors_id>cvx_active_vendors_id|<vendor_ud>vendor_ud|<vendor_nm>vendor_nm|<tax_id>tax_id|<phone>phone|<address_1>address_1|<address_2>address_2|<address_3>address_3|<city>city|<state>state|<country>country|<zip>zip|<accounting_company_id>accounting_company_id|<active>active|<ppa_code>ppa_code" shape="record"];
		CVXPROVIDER_CVX_ACTIVE_PROVIDERS [label="<tb>CVX_ACTIVE_PROVIDERS |<cvx_active_providers_id>cvx_active_providers_id|<provider_ud>provider_ud|<last_name>last_name|<first_name>first_name|<middle_name>middle_name|<salutation>salutation|<name_suffix>name_suffix|<gender_code>gender_code|<currency_id>currency_id|<is_active>is_active|<prac_npi>prac_npi|<payee_npi>payee_npi|<offassoc>offassoc|<cv1_practitioner_number>cv1_practitioner_number|<active_date>active_date|<term_date>term_date|<list_code>list_code" shape="record"];
		CVXPROVIDER_PRACTICE_OFFICE [label="<tb>PRACTICE_OFFICE |<practice_office_id>practice_office_id|<practice_office_ud>practice_office_ud|<practice_office_nm>practice_office_nm|<code_type_id>code_type_id|<use_current_code_set>use_current_code_set|<locality_number>locality_number|<locality_name>locality_name|<phone>phone|<phone_ext>phone_ext|<address1>address1|<address2>address2|<city>city|<county>county|<state>state|<country>country|<zipcode>zipcode|<fax>fax|<fax_ext>fax_ext|<email>email|<pref_correspondence_id>pref_correspondence_id|<primary_contact>primary_contact|<carrier_number>carrier_number|<active>active|<os_user_name>os_user_name|<date_modified>date_modified|<sql_user_name>sql_user_name|<date_created>date_created|<timestamp>timestamp|<hardship>hardship" shape="record"];
		CVXPROVIDER_PROVIDER [label="<tb>PROVIDER |<provider_id>provider_id|<provider_ud>provider_ud|<last_name>last_name|<first_name>first_name|<middle_name>middle_name|<name_prefix>name_prefix|<name_suffix>name_suffix|<dob>dob|<gender>gender|<language_id>language_id|<call_back_id>call_back_id|<pend_claims>pend_claims|<location_code_id>location_code_id|<currency_id>currency_id|<active>active|<os_user_name>os_user_name|<date_modified>date_modified|<sql_user_name>sql_user_name|<date_created>date_created|<timestamp>timestamp|<active_date>active_date|<term_date>term_date|<cv1_practitioner_number>cv1_practitioner_number|<created_by>created_by|<nnp_date>nnp_date|<list_code>list_code" shape="record"];
  	CVXPROVIDER_VENDOR [label="<tb>VENDOR|<vendor_ud>vendor_ud|<tax_id>tax_id" shape="record"];
		CVXPROVIDER_CVX_ACTIVE_PROVIDERS [label="<tb>CVX_ACTIVE_PROVIDERS |<cvx_active_providers_id>cvx_active_providers_id|<provider_ud>provider_ud|<last_name>last_name|<first_name>first_name|<middle_name>middle_name|<salutation>salutation|<name_suffix>name_suffix|<gender_code>gender_code|<currency_id>currency_id|<is_active>is_active|<prac_npi>prac_npi|<payee_npi>payee_npi|<offassoc>offassoc|<cv1_practitioner_number>cv1_practitioner_number|<active_date>active_date|<term_date>term_date|<list_code>list_code" shape="record"];
		CVXPROVIDER_CVX_PROVIDER_DETAILS [label="<tb>CVX_PROVIDER_DETAILS |<cvx_provider_details_id>cvx_provider_details_id|<provider_id>provider_id|<provider_ud>provider_ud|<eff_date>eff_date|<active>active|<ppa_code>ppa_code|<medicare_number>medicare_number|<medicaid_number>medicaid_number|<own_lab>own_lab|<panel_code>panel_code|<cv1_practitioner_number>cv1_practitioner_number|<list_code>list_code|<tower_code>tower_code|<specialty_tray>specialty_tray|<discount>discount|<epo>epo|<ppo>ppo|<location_code>location_code" shape="record"];
		CVXPROVIDER_DV_PRACTICE_OFFICE [label="<tb>DV_PRACTICE_OFFICE |<practice_office_id>practice_office_id|<dv_pro_name>dv_pro_name|<dv_dba_name>dv_dba_name|<dv_payee_name>dv_payee_name|<name_to_use>name_to_use|<address1>address1|<address2>address2|<city>city|<state>state|<zip>zip|<service_type_code>service_type_code|<dispense_only>dispense_only|<npi_payee>npi_payee|<servicetype>servicetype" shape="record"];
		CVXPROVIDER_MEDICAL_GROUP [label="<tb>MEDICAL_GROUP |<medical_group_id>medical_group_id|<medical_group_ud>medical_group_ud|<medical_group_nm>medical_group_nm|<active>active|<sql_user_name>sql_user_name|<date_created>date_created|<timestamp>timestamp|<date_modified>date_modified|<os_user_name>os_user_name" shape="record"];
		CVXPROVIDER_CVX_PROVIDERCATEGORYMAP [label="<tb>CVX_PROVIDERCATEGORYMAP |<cvx_providercategorymap_id>cvx_providercategorymap_id|<provider_category_id>provider_category_id|<provider_category_ud>provider_category_ud|<provider_id>provider_id" shape="record"];
		CVXPROVIDER_PROVIDER_MEDICAID [label="<tb>PROVIDER_MEDICAID |<provider_medicaid_id>provider_medicaid_id|<provider_id>provider_id|<medicaid_number>medicaid_number|<medicaid_state>medicaid_state|<eff_date>eff_date|<term_date>term_date|<active>active|<date_modified>date_modified|<date_created>date_created|<os_user_name>os_user_name|<sql_user_name>sql_user_name|<timestamp>timestamp" shape="record"];
		CVXPROVIDER_CVX_PROVIDER_DETAILS [label="<tb>CVX_PROVIDER_DETAILS |<cvx_provider_details_id>cvx_provider_details_id|<provider_id>provider_id|<provider_ud>provider_ud|<eff_date>eff_date|<active>active|<ppa_code>ppa_code|<medicare_number>medicare_number|<medicaid_number>medicaid_number|<own_lab>own_lab|<panel_code>panel_code|<cv1_practitioner_number>cv1_practitioner_number|<list_code>list_code|<tower_code>tower_code|<specialty_tray>specialty_tray|<discount>discount|<epo>epo|<ppo>ppo|<location_code>location_code" shape="record"];	
		CVXPROVIDER_PROVIDER_VENDOR_ASSIGN [label="<tb>PROVIDER_VENDOR_ASSIGN |<provider_vendor_assign_id>provider_vendor_assign_id|<provider_id>provider_id|<vendor_id>vendor_id|<default_vendor>default_vendor|<eff_from>eff_from|<eff_thru>eff_thru|<provider_id_map_id>provider_id_map_id|<contract_id>contract_id|<vendor_payment_type_id>vendor_payment_type_id" shape="record"];

	}
	
	subgraph CLUSTER_DB2PROVIDER {
		graph [rankdir="TB" color="blue"];
		node [fontsize=14 style="bold"];
		DB2PROVIDER_CV1PRO_XREF [label="<tb>CV1PRO_XREF |<cv1_associate_id>cv1_associate_id|<cv1_provider_id>cv1_provider_id|<practitioner_num>practitioner_num|<selected>selected" shape="record"];
		DB2PROVIDER_OFFICE [label="<tb>OFFICE|<office_number>office_number|<active_date>active_date|<term_date>term_date|<deleted_date>deleted_date|<dba_name>dba_name|<add_to_panels>add_to_panels|<address1>address1|<address2>address2|<address3>address3|<city>city|<state_code>state_code|<zip>zip|<phone>phone|<laser_surgery>laser_surgery|<does_ear_exams>does_ear_exams|<does_eye_exams>does_eye_exams|<dispenses_glasses>dispenses_glasses|<fits_soft_cl>fits_soft_cl|<group_npi_number>group_npi_number|<handicap_access>handicap_access|<languages>languages|<name>name|<fax>fax|<group_medicaid_id>group_medicaid_id|<group_medicaid_id2>group_medicaid_id2|<hearing_aids>hearing_aids|<term_code>term_code" shape="record"];
		DB2PROVIDER_PANEL [label="<tb>PANEL|<group_code>group_code|<panel_code>panel_code|<date_removed>date_removed|<date_added>date_added|<temporary>temporary|<exclude>exclude|<office_number>office_number" shape="record"];
		DB2PROVIDER_PANEL_ASSOCS [label="<tb>PANEL_ASSOCS |<pas_associate>pas_associate|<pas_date_added>pas_date_added|<pas_date_dropped>pas_date_dropped|<pas_group>pas_group|<pas_office_number>pas_office_number|<pas_override>pas_override|<pas_panel>pas_panel|<pas_pract_num>pas_pract_num|<pas_status>pas_status|<pas_user_]\]id>pas_user_id" shape="record"];
		DB2PROVIDER_PAY_DISPENSE [label="<tb>PAY_DISPENSE |<office_number>office_number|<payee_number>payee_number|<start_date>start_date|<term_date>term_date" shape="record"];
		DB2PROVIDER_PAYEE [label="<tb>PAYEE |<tax_id>tax_id|<payee_number>payee_number|<deleted_date>deleted_date" shape="record"];
		DB2PROVIDER_PANEL_ASSOCS [label="<tb>PANEL_ASSOCS |<pas_associate>pas_associate|<pas_date_added>pas_date_added|<pas_date_dropped>pas_date_dropped|<pas_group>pas_group|<pas_office_number>pas_office_number|<pas_override>pas_override|<pas_panel>pas_panel|<pas_pract_num>pas_pract_num|<pas_status>pas_status|<pas_user_id>pas_user_id" shape="record"];
		DB2PROVIDER_PRACTICE [label="<tb>PRACTICE |<medicaid_suffix>medicaid_suffix|<office_number>office_number|<practitioner_num>practitioner_num|<primary>primary|<start_date>start_date|<term_date>term_date" shape="record"];
		DB2PROVIDER_PRACT_LICENSE [label="<tb>PRACT_LICENSE |<expiration_date>expiration_date|<license_inst_num>license_inst_num|<license_number>license_number|<license_state>license_state|<license_type>license_type|<license_verify_dt>license_verify_dt|<orig_issue_date>orig_issue_date|<pract_license_key>pract_license_key|<practitioner_num>practitioner_num" shape="record"];
		DB2PROVIDER_PRACT_CREDENTIAL [label="<tb>PRACT_CREDENTIAL |<ama_verify_dt>ama_verify_dt|<approved_for>approved_for|<associate_name>associate_name|<attestation_date>attestation_date|<committee_notes>committee_notes|<credent_status_dt>credent_status_dt|<credential_date>credential_date|<credential_status>credential_status|<credential_type>credential_type|<date_stamp>date_stamp|<fsmb_verify_dt>fsmb_verify_dt|<infraction_ind>infraction_ind|<medchk_verify_dt>medchk_verify_dt|<medicaid_verif_dt1>medicaid_verif_dt1|<medicaid_verif_dt2>medicaid_verif_dt2|<medicare_optout_dt>medicare_optout_dt|<medicare_verify_dt>medicare_verify_dt|<oig_pa_verify_dt>oig_pa_verify_dt|<pa_ref_letter_ind>pa_ref_letter_ind|<pat_exam_form_ind>pat_exam_form_ind|<pract_cred_key>pract_cred_key|<practitioner_num>practitioner_num|<re_credential_date>re_credential_date|<reason_code>reason_code|<susp_date>susp_date|<susp_lift_date>susp_lift_date|<susp_notes>susp_notes|<susp_reasons>susp_reasons" shape="record"];
		DB2PROVIDER_PRACTITIONER [label="<tb>PRACTITIONER | <practitioner_num>practitioner_num | <active_date>active_date | <term_date>term_date | <deleted_date>deleted_date | <npi_number>npi_number | <last_name>last_name | <first_name>first_name | <middle_name>middle_name | <pedigree>pedigree | <birth_date>birth_date | <gender_code>gender_code |<term_code>term_code |  <board_cert_date>board_cert_date | <board_recert_date>board_recert_date | <languages>languages | <ssn>ssn | <medicaid_number1>medicaid_number1 | <medicaid_number2>medicaid_number2 " shape="record"];
		
	}
	subgraph CLUSTER_DB2PROVIDERTEMPS {
		graph [rankdir="TB"];
		node [fontsize=14 style=bold color="firebrick"];
		DB2PROVIDER_tACTIVEPROVIDERMEDICALGROUPXREF2 [label="<tb>#activeProviderMedicalGroupXref | <provider_id>provider_id | <medical_group_id>medical_group_id | <eff_date>eff_date | <active>active" shape="record" ];
		DB2PROVIDER_tPROVIDERSERVICETYPES [label="<tb>#providerServiceTypes | <provider_id>provider_id | <provider_category_ud>provider_category_ud" shape="record"];
		DB2PROVIDER_tPROVIDERIDMAP3 [label="<tb>#providerIdMap|<provider_id_map_ud>provider_id_map_ud|<provider_id_map_category>provider_id_map_category_id|<provider_id>provider_id|<use_as_default>use_as_default|<active>active|<term_date>term_date|<exception>exception" shape="record"];
		DB2PROVIDER_tPRACTICE_XREF [label="<tb>#practice_xref|<practitioner_num>practitioner_num|<office_number>office_number|<cv1_provider_id>cv1_provider_id|<start_date>start_date|<term_date>term_date|<primary>primary " shape="record"];
		DB2PROVIDER_tPROVIDER_MEDICAID [label="<tb>#provider_medicaid | <provider_id>provider_id | <medicaid_number>medicaid_number | <medicaid_state>medicaid_state" shape="record"];
		DB2PROVIDER_tLASERPANELS [label="<tb>#laserPanels | <panel_code>panel_code | <office_number>office_number" shape="record"];	
		DB2PROVIDER_tACTIVEVENDORS [label="<tb>#activeVendors | <vendor_ud>vendor_ud | <vendor_nm>vendor_nm | <tax_id>tax_id | <phone>phone | <address_1>address_1 | <address_2>address_2 | <city>city | 
 															<state>state | <country>country | <zip>zip | <accounting_company_id>account_company_id | <active>active" shape="record"];

	}
	subgraph CLUSTER_DB2MISSING {
		graph [rankdir="LR" color="red"];
		node [fontsize=14 style=bold ];	
		DB2PROVIDER_MISSING1 [label="<unknown>?" shape="record"];
 		DB2PROVIDER_MISSING2 [label="<unknown>?" shape="record"];
	}
	subgraph CLUSTER_DB2PROVIDERCONDITIONALS
	{
		graph [rankdir="TB" color="orangered"];
		node [fontsize=14 style=bold color="purple"];
		DB2PROVIDER_IFTHEN10 [label="<tb>Conditional| { <c1>office.office_number between 70000 and 97999 | <val1>A} | { <c2>office.on_provider_list=1 and office.add_to_panels=1 and office.can_add_to_panels=1 | <val2>A } | { <c3>office.on_provider_list=1 and office.add_to_panels=0 and office.can_add_to_panels=1 | <val3>R } | { <c4>office.on_provider_list=0 and office.add_to_panels=1 and office.can_add_to_panels=1 | <val4>N } | { <c7>else | <val7>D }}" shape="record"];
		DB2PROVIDER_IFTHEN11 [label="<tb>Conditional | { <c1>if associate_id\<\>'000'| <val1>last_name } | { <c2>known_by='B' | <val2>dba_name } | { <c3>known_by='P' | <val3>offname } | {<c4>known_by='D' | <val4>offname+' '+dba_name } | { <c5>practitioner_num is NULL | <val5>offname} | {<c6>else |<val6>last_name}}"  shape="record"];
		DB2PROVIDER_IFTHEN15 [label="<tb>Lookup | { <c1>pedigree='A' | <val1>'MD'} | { <c2>pedigree='B'| <val2>'DO'} | { <c3>pedigree='C' | <val3>'OD' }" shape="record"];
		DB2PROVIDER_IFTHEN16 [label="<tb>Conditional | { <c1>practitioner_deleted IS NOT NULL and practitioner_deleted \<= \@curdate | <val1>'0'} | { <c2>else | <val2>1}" shape="record"];	
		
 		DB2PROVIDER_IFTHEN2 [label="<tb>Conditional |{ <c1>laser_surgery=1 | <valL>L } | { <c2>does_ear_exams=1 OR hearing_aids=1 | <valA> A } |{ <c3>does_eye_exams=1 AND dispenses_glasses=1 AND fits_soft_cl=1 | <valF> F } | { <c4>does_eye_exams=1 AND dispenses_glasses=1 AND fits_soft_cl=0 | <valH> H } |	{ <c5>does_eye_exams=1 AND dispenses_glasses=0 AND fits_soft_cl=1 | <valC> C } |{ <c6>does_eye_exams=1 AND dispenses_glasses=0 AND fits_soft_cl=0 | <valE> E } |	{ <c7>dispenses_glasses=1 AND fits_soft_cl=1 | <valD> D } |	{ <c8>dispenses_glasses=1 AND fits_soft_cl=0 | <valG> G } |	{ <c9>fits_soft_cl=1 | <valB> B } | { <c10>ELSE | <valN> N }" shape="record"];
 		DB2PROVIDER_IFTHEN3 [label="<tb>Conditional |{ <c1>laser_surgery=1 | <valL>false } |{ <c2>does_ear_exams=1 OR hearing_aids=1 | <valA>false } | { <c3>does_eye_exams=1 AND dispenses_glasses=1 AND fits_soft_cl=1 | <valF>false } |{ <c4>does_eye_exams=1 AND dispenses_glasses=1 AND fits_soft_cl=0 | <valH>false } | { <c5>does_eye_exams=1 AND dispenses_glasses=0 AND fits_soft_cl=1 | <valC>false } |{ <c6>does_eye_exams=1 AND dispenses_glasses=0 AND fits_soft_cl=0 | <valE>false } | { <c7>dispenses_glasses=1 AND fits_soft_cl=1 | <valD>true } | { <c8>dispenses_glasses=1 AND fits_soft_cl=0 | <valG>true } | { <c9>fits_soft_cl=1 | <valB> true } | { <c10>ELSE | <valN> false }" shape="record"];
 		DB2PROVIDER_IFTHEN4 [label="<tb>Conditional |{ <c3>does_eye_exams=1 AND dispenses_glasses=1 AND fits_soft_cl=1 | <val1>Full Service} |{ <c4>does_eye_exams=1 AND dispenses_glasses=1 AND fits_soft_cl=0 | <val2>Exam and Glasses Only } | { <c5>does_eye_exams=1 AND dispenses_glasses=0 AND fits_soft_cl=1 | <val3>Exam and Contact Lenses Only } | { <c6>does_eye_exams=1 AND dispenses_glasses=0 AND fits_soft_cl=0 | <val4>Exam } | { <c7>dispenses_glasses=1 AND fits_soft_cl=1 | <val5>Dispense Glasses and Contact Lenses } | { <c8>dispenses_glasses=1 AND fits_soft_cl=0 | <val6>Dispense Glasses Only} | { <c9>fits_soft_cl=1 | <val7>Contact Lenses Only } | { <c10>ELSE | <val8> None}" shape="record"];
 		DB2PROVIDER_IFTHEN7 [label="<tb>Conditional | { <c1>office.office_number between 70000 and 97999 | <val1>A } | { <c2>practice.CV1_ASSOCIATE_ID='000' then  \n office.on_provider_list=1 and office.add_to_panels=1 and office.can_add_to_panels=1 | <val2>A } |	{ <c3>practice.CV1_ASSOCIATE_ID='000' then \n office.on_provider_list=1 and office.add_to_panels=0 and office.can_add_to_panels=1 | <val3>R } |	{ <c4>practice.CV1_ASSOCIATE_ID='000' then \noffice.on_provider_list=0 and office.add_to_panels=1 and office.can_add_to_panels=1 | <val4>N } | { <c5>practice.CV1_ASSOCIATE_ID='000' else \n | <val5>D } | { <c6>practitioner.on_provider_list=1 | <val6>A } |	{ <c7>else | <val7>D }" shape="record"];
		DB2PROVIDER_IFTHEN9 [label="<tb>Conditional | { <c1>office.office_number between 100000 and 109999 | <val1> 'A'+office.office_number } |{ <c2>office.office_number between 200000 and 209999 | <val2> 'L'+office.office_number } | { <c3>else | <val3>office.office_number }" shape="record"];
 		DB2PROVIDER_IFTHEN10 [label="<tb>Conditional| { <c1>office.office_number between 70000 and 97999 | <val1>A} | { <c2>office.on_provider_list=1 and office.add_to_panels=1 and office.can_add_to_panels=1 | <val2>A } | { <c3>office.on_provider_list=1 and office.add_to_panels=0 and office.can_add_to_panels=1 | <val3>R } | { <c4>office.on_provider_list=0 and office.add_to_panels=1 and office.can_add_to_panels=1 | <val4>N } | { <c7>else | <val7>D }" shape="record"];
 		DB2PROVIDER_IFTHEN19 [label="<tb>Conditional |{ <c1>laser_surgery=1 | <valL>L } | { <c2>does_ear_exams=1 OR hearing_aids=1 | <valA> A } | { <c3>does_eye_exams=1 AND dispenses_glasses=1 AND fits_soft_cl=1 | <valF> F } | { <c4>does_eye_exams=1 AND dispenses_glasses=1 AND fits_soft_cl=0 | <valH> H } | { <c5>does_eye_exams=1 AND dispenses_glasses=0 AND fits_soft_cl=1 | <valC> C } | { <c6>does_eye_exams=1 AND dispenses_glasses=0 AND fits_soft_cl=0 | <valE> E } | { <c7>dispenses_glasses=1 AND fits_soft_cl=1 | <valD> D } | { <c8>dispenses_glasses=1 AND fits_soft_cl=0 | <valG> G } | { <c9>fits_soft_cl=1 | <valB> B } | { <c10>ELSE | <valN> N }" shape="record"];
 		DB2PROVIDER_IFTHEN20 [label="<tb>Conditional |{ <c1>laser_surgery=1 | <valL>false } | { <c2>does_ear_exams=1 OR hearing_aids=1 | <valA>false } | { <c3>does_eye_exams=1 AND dispenses_glasses=1 AND cits_soft_cl=1 | <valF>false } |{ <c4>does_eye_exams=1 AND dispenses_glasses=1 ND fits_soft_cl=0 | <valH>false } | { <c5>does_eye_exams=1 AND dispenses_glasses=0 AND fits_soft_cl=1 | <valC>false } | { <c6>does_eye_exams=1 AND dispenses_glasses=0 AND fits_soft_cl=0 | <valE>false } | { <c7>dispenses_glasses=1 AND fits_soft_cl=1 | <valD>true } | { <c8>dispenses_glasses=1 AND fits_soft_cl=0 | <valG>true } | { <c9>fits_soft_cl=1 | <valB> true } | { <c10>ELSE | <valN> false }" shape="record"];
 		DB2PROVIDER_IFTHEN22 [label="<tb>Conditional |{ <c3>does_eye_exams=1 AND dispenses_glasses=1 AND fits_soft_cl=1 | <val1>Full Service} |{ <c4>does_eye_exams=1 AND dispenses_glasses=1 AND fits_soft_cl=0 | <val2>Exam and Glasses Only } |{ <c5>does_eye_exams=1 AND dispenses_glasses=0 AND fits_soft_cl=1 | <val3>Exam and Contact Lenses Only } |{ <c6>does_eye_exams=1 AND dispenses_glasses=0 AND fits_soft_cl=0 | <val4>Exam } | { <c7>dispenses_glasses=1 AND fits_soft_cl=1 | <val5>Dispense Glasses and Contact Lenses } |{ <c8>dispenses_glasses=1 AND fits_soft_cl=0 | <val6>Dispense Glasses Only} |{ <c9>fits_soft_cl=1 | <val7>Contact Lenses Only } | { <c10>ELSE | <val8> None}" shape="record"];
	}

	subgraph CLUSTER_DB2 {
		graph [rankdir="TB"]
		node [fontsize=14 style=bold color="lightcoral"];
		label="DB2";
		DB2_CACTUS_IMPORT_LOG [label="<tb>CACTUS_IMPORT_LOG |<insert_datetime>insert_datetime|<practitioner_num>practitioner_num" shape="record"];
		DB2_CV1PRO_XREF [label="<tb>CV1PRO_XREF |<cv1_associate_id>cv1_associate_id|<cv1_provider_id>cv1_provider_id|<practitioner_num>practitioner_num|<selected>selected" shape="record"];
		DB2_CODE_VALUE [label="<tb>CODE_VALUE |<code>code|<description>description|<field_name>field_name|<table_name>table_name" shape="record"];
		DB2_OFFICE [label="<tb>OFFICE|<office_number>office_number|<active_date>active_date|<term_date>term_date|<deleted_date>deleted_date|<add_to_panels>add_to_panels|<dba_name>dba_name|<address1>address1|<address2>address2|<address3>address3|<city>city|<state_code>state_code|<zip>zip|<phone>phone|<laser_surgery>laser_surgery|<does_ear_exams>does_ear_exams|<does_eye_exams>does_eye_exams|<dispenses_glasses>dispenses_glasses|<fits_soft_cl>fits_soft_cl|<group_npi_number>group_npi_number|<handicap_access>handicap_access|<languages>languages|<name>name|<fax>fax|<group_medicaid_id>group_medicaid_id|<group_medicaid_id2>group_medicaid_id2|<hearing_aids>hearing_aids|<term_code>term_code|<group_medicaid_st>group_medicaid_st|<group_medicaid_st2>group_medicaid_st2|<on_provider_list>on_provider_list" shape="record"];
		DB2_PANEL [label="<tb>PANEL|<group_code>group_code|<panel_code>panel_code|<date_removed>date_removed|<date_added>date_added|<temporary>temporary|<exclude>exclude|<office_number>office_number" shape="record"];
		DB2_PANEL_ASSOCS [label="<tb>PANEL_ASSOCS |<pas_date_added>pas_date_added|<pas_group>pas_group|<pas_office_number>pas_office_number|<pas_panel>pas_panel|<pas_pract_num>pas_pract_num|<pas_status>pas_status" shape="record"];
		DB2_PAYEE [label="<tb>PAYEE |<address1>address1|<address2>address2|<address3>address3|<city>city|<country_code>country_code|<cv1_ppa_code>cv1_ppa_code|<cv1_provider_num>cv1_provider_num|<date_added>date_added|<deleted_date>deleted_date|<enroll_req_type>enroll_req_type|<entry_associate>entry_associate|<future_term>future_term|<hold_checks>hold_checks|<is_practitioner>is_practitioner|<notes>notes|<pay_name>pay_name|<payee_number>payee_number|<payment_method>payment_method|<phone>phone|<practitioner_num>practitioner_num|<remit_advice>remit_advice|<state_code>state_code|<structure_type>structure_type|<tax_id>tax_id|<tax_id_is_ssn>tax_id_is_ssn|<term_code>term_code|<transfer_freq>transfer_freq|<transfer_from>transfer_from|<transfer_to>transfer_to|<w9_date>w9_date|<w9_name>w9_name|<w9_status>w9_status|<w9_type>w9_type|<zip>zip" shape="record"];
		DB2_PAY_DISPENSE [label="<tb>PAY_DISPENSE |<payee_number>payee_number|<start_date>start_date" shape="record"];
		DB2_PANEL_ASSOCS [label="<tb>PANEL_ASSOCS |<pas_date_added>pas_date_added|<pas_group>pas_group|<pas_office_number>pas_office_number|<pas_panel>pas_panel|<pas_pract_num>pas_pract_num|<pas_status>pas_status" shape="record"];
		DB2_PRACTICE [label="<tb>PRACTICE |<medicaid_suffix>medicaid_suffix|<office_number>office_number|<practitioner_num>practitioner_num|<primary>primary|<start_date>start_date|<term_date>term_date" shape="record"];
		DB2_PRACT_LICENSE [label="<tb>PRACT_LICENSE |<expiration_date>expiration_date|<license_number>license_number|<license_state>license_state|<practitioner_num>practitioner_num" shape="record"];
		DB2_PRACT_CREDENTIAL [label="<tb>PRACT_CREDENTIAL |<attestation_date>attestation_date|<credential_date>credential_date|<credential_status>credential_status|<pract_cred_key>pract_cred_key|<practitioner_num>practitioner_num" shape="record"];
		DB2_PRACTICE [label="<tb>PRACTICE |<medicaid_suffix>medicaid_suffix|<office_number>office_number|<practitioner_num>practitioner_num|<primary>primary|<start_date>start_date|<term_date>term_date" shape="record"];
		DB2_PRACTITIONER [label="<tb>PRACTITIONER | <practitioner_num>practitioner_num | <active_date>active_date | <term_date>term_date | <deleted_date>deleted_date | <npi_number>npi_number | <last_name>last_name | <first_name>first_name | <middle_name>middle_name | <pedigree>pedigree | <birth_date>birth_date | <gender_code>gender_code | <term_code>term_code | <board_cert_date>board_cert_date | <board_recert_date>board_recert_date | <languages>languages | <ssn>ssn | <medicaid_number1>medicaid_number1 | <medicaid_number2>medicaid_number2 " shape="record"];
		DB2_OFFICE_AUDIT_RQAR [label="<tb>OFFICE_AUDIT_RQAR | <office_number>office_number | <review_date>review_date | <review_type>review_type | <reviewer>reviewer" shape="record"]
		DB2_PROV_CHANGE_LOG [label="<tb>PROV_CHANGE_LOG |<change_source>change_source|<change_source_id>change_source_id|<change_time_stamp>change_time_stamp|<field_code>field_code" shape="record"];
		DB2_ZIP_GEO [label="<tb>ZIP_GEO |<county>county|<county_fips>county_fips|<zip>zip" shape="record"];
		DB2_STATEFIPSCODE [label="<tb>STATEFIPSCODE |<state_code>state_code|<state_fips_code>state_fips_code" shape="record"];
		DB2_QA_MED_NEC_PRAP [label="<tb>QA_MED_NEC_PRAP |<qa_mn_prap_num>qa_mn_prap_num|<cv1_emp_id>cv1_emp_id|<cv1_emp_group>cv1_emp_group|<cv1_emp_subgroup>cv1_emp_subgroup|<cv1_emp_last_name>cv1_emp_last_name|<cv1_emp_first_name>cv1_emp_first_name|<cv1_emp_mid_init>cv1_emp_mid_init|<cv1_voucher_num>cv1_voucher_num|<date_issued>date_issued|<status>status|<status_date>status_date|<recvd_date>recvd_date|<is_contact_lens>is_contact_lens|<is_addtn_exam>is_addtn_exam|<is_addtn_material>is_addtn_material|<is_replglas_rx_chg>is_replglas_rx_chg|<is_replglas_loss>is_replglas_loss|<reason_for_auth>reason_for_auth|<addtnl_material>addtnl_material" shape="record"];
	}
	
	# /* CVXPROVIDER */
	CVXPROVIDER_CVX_ACTIVE_PRACTICE_OFFICES:address1 -> CVXPROVIDER_PRACTICE_OFFICE:address1;
	CVXPROVIDER_CVX_ACTIVE_PRACTICE_OFFICES:address2 -> CVXPROVIDER_PRACTICE_OFFICE:address2;
	CVXPROVIDER_CVX_ACTIVE_PRACTICE_OFFICES:city -> CVXPROVIDER_PRACTICE_OFFICE:city;
	CVXPROVIDER_CVX_ACTIVE_PRACTICE_OFFICES:fax -> CVXPROVIDER_PRACTICE_OFFICE:fax;
	CVXPROVIDER_CVX_ACTIVE_PRACTICE_OFFICES:offname -> CVXPROVIDER_PRACTICE_OFFICE:practice_office_nm;
	CVXPROVIDER_CVX_ACTIVE_PRACTICE_OFFICES:phone -> CVXPROVIDER_PRACTICE_OFFICE:phone;
	CVXPROVIDER_CVX_ACTIVE_PRACTICE_OFFICES:zip -> CVXPROVIDER_PRACTICE_OFFICE:zipcode;
	CVXPROVIDER_CVX_ACTIVE_PROVIDERS:gender_code -> CVXPROVIDER_PROVIDER:gender ; 
	CVXPROVIDER_CVX_ACTIVE_PROVIDERS:is_active -> CVXPROVIDER_PROVIDER:active ;
	CVXPROVIDER_CVX_ACTIVE_PROVIDERS:last_name -> CVXPROVIDER_PROVIDER:last_name ;
	CVXPROVIDER_CVX_ACTIVE_PROVIDERS:list_code -> CVXPROVIDER_PROVIDER:list_code ;
	CVXPROVIDER_CVX_ACTIVE_PROVIDERS:name_suffix -> CVXPROVIDER_PROVIDER:name_suffix ;
	CVXPROVIDER_CVX_ACTIVE_PROVIDERS:term_date -> CVXPROVIDER_PROVIDER:term_date ;
	CVXPROVIDER_CVX_ACTIVE_VENDORS:tax_id -> CVXPROVIDER_VENDOR:tax_id ;
	CVXPROVIDER_CVX_ACTIVE_VENDORS:vendor_ud -> CVXPROVIDER_VENDOR:vendor_ud ;
	CVXPROVIDER_CVX_TMPOFFPRACT:active_date -> DB2PROVIDER_tACTIVEPROVIDERMEDICALGROUPXREF2:eff_date ;
	CVXPROVIDER_CVX_TMPOFFPRACT:associate_id -> DB2PROVIDER_IFTHEN11:c1 ;
	CVXPROVIDER_CVX_TMPOFFPRACT:associate_id -> DB2PROVIDER_IFTHEN15:c2  ;     
	CVXPROVIDER_CVX_TMPOFFPRACT:gender_code -> CVXPROVIDER_CVX_ACTIVE_PROVIDERS:gender_code ;
	CVXPROVIDER_CVX_TMPOFFPRACT:list_code -> CVXPROVIDER_CVX_ACTIVE_PROVIDERS:list_code  ;
	CVXPROVIDER_CVX_TMPOFFPRACT:list_code -> CVXPROVIDER_CVX_ACTIVE_PROVIDERS:list_code ;
	CVXPROVIDER_CVX_TMPOFFPRACT:list_code -> CVXPROVIDER_CVX_PROVIDER_DETAILS:list_code ;
	CVXPROVIDER_CVX_TMPOFFPRACT:offname -> CVXPROVIDER_CVX_ACTIVE_PRACTICE_OFFICES:offname ;
	CVXPROVIDER_CVX_TMPOFFPRACT:offnum -> CVXPROVIDER_CVX_ACTIVE_PRACTICE_OFFICES:offnum ;
	CVXPROVIDER_CVX_TMPOFFPRACT:offnum -> DB2PROVIDER_IFTHEN15:c1  ;
	CVXPROVIDER_CVX_TMPOFFPRACT:offnum -> DB2PROVIDER_IFTHEN15:c1  ;           
	CVXPROVIDER_CVX_TMPOFFPRACT:payee_npi -> CVXPROVIDER_CVX_ACTIVE_PRACTICE_OFFICES:npi_payee ;
	CVXPROVIDER_CVX_TMPOFFPRACT:payee_npi -> CVXPROVIDER_CVX_ACTIVE_PROVIDERS:payee_npi  ;
	CVXPROVIDER_CVX_TMPOFFPRACT:pedigree -> DB2PROVIDER_IFTHEN15:c1 ;
	CVXPROVIDER_CVX_TMPOFFPRACT:pedigree -> DB2PROVIDER_IFTHEN15:c2 ;
	CVXPROVIDER_CVX_TMPOFFPRACT:pedigree -> DB2PROVIDER_IFTHEN15:c3 ;
	CVXPROVIDER_CVX_TMPOFFPRACT:prac_npi -> CVXPROVIDER_CVX_ACTIVE_PROVIDERS:prac_npi  ;
	CVXPROVIDER_CVX_TMPOFFPRACT:practice_primary -> DB2PROVIDER_IFTHEN15:c2  ; 
	CVXPROVIDER_CVX_TMPOFFPRACT:practice_primary -> DB2PROVIDER_IFTHEN15:c2 ;
	CVXPROVIDER_CVX_TMPOFFPRACT:practice_start -> CVXPROVIDER_CVX_PROVIDER_DETAILS:eff_date ;
	CVXPROVIDER_CVX_TMPOFFPRACT:practice_term -> DB2PROVIDER_IFTHEN15:c2  ;
	CVXPROVIDER_CVX_TMPOFFPRACT:practice_term -> DB2PROVIDER_IFTHEN15:c2  ;    
	CVXPROVIDER_CVX_TMPOFFPRACT:practitioner_deleted -> DB2PROVIDER_IFTHEN16:tb  ;
	CVXPROVIDER_CVX_TMPOFFPRACT:practitioner_num -> DB2PROVIDER_IFTHEN11:c5 ;
	CVXPROVIDER_CVX_TMPOFFPRACT:practitioner_term -> DB2PROVIDER_IFTHEN15:c2  ;
	CVXPROVIDER_CVX_TMPOFFPRACT:term_date -> CVXPROVIDER_CVX_ACTIVE_PROVIDERS:term_date  ;
	CVXPROVIDER_DV_PRACTICE_OFFICE:serviceType -> DB2PROVIDER_tPROVIDERSERVICETYPES:provider_category_ud;
	CVXPROVIDER_PRACTICE_OFFICE:practice_office_nm -> CVXPROVIDER_MEDICAL_GROUP:medical_group_nm ;
	#CVXPROVIDER_PRACTICE_OFFICE:practice_office_nm -> CVXPROVIDER_MEDICAL_GROUP:medical_group_nm;
	CVXPROVIDER_PRACTICE_OFFICE:state -> CVXPROVIDER_CVX_PROVIDERCATEGORYMAP:provider_category_ud ;
	CVXPROVIDER_PROVIDER:term_date -> DB2PROVIDER_tPROVIDERIDMAP3:term_date ;
	CVXPROVIDER_PROVIDER_MEDICAID:medicaid_number -> CVXPROVIDER_CVX_PROVIDER_DETAILS:medicaid_number ;
	# /* DB2 */
	DB2_CACTUS_IMPORT_LOG:insert_datetime -> DB2PROVIDER_MISSING1:unknown;
	DB2_CACTUS_IMPORT_LOG:practitioner_num -> DB2PROVIDER_MISSING1:unknown;
	
	DB2_CODE_VALUE:code -> DB2PROVIDER_MISSING1:unknown;
	DB2_CODE_VALUE:description -> DB2PROVIDER_MISSING1:unknown;
	DB2_CODE_VALUE:field_name -> DB2PROVIDER_MISSING1:unknown;
	DB2_CODE_VALUE:table_name -> DB2PROVIDER_MISSING1:unknown;
	
	DB2_CV1PRO_XREF:cv1_associate_id -> DB2PROVIDER_CV1PRO_XREF:cv1_associate_id;
	DB2_CV1PRO_XREF:cv1_associate_id -> DB2PROVIDER_tPRACTICE_XREF:cv1_provider_id ;
	DB2_CV1PRO_XREF:cv1_provider_id -> DB2PROVIDER_CV1PRO_XREF:cv1_provider_id;
	DB2_CV1PRO_XREF:practitioner_num -> DB2PROVIDER_CV1PRO_XREF:practitioner_num;
	DB2_CV1PRO_XREF:selected -> DB2PROVIDER_CV1PRO_XREF:selected;
	
	DB2_OFFICE:active_date -> CVXPROVIDER_CVX_TMPOFFPRACT:active_date ;
	DB2_OFFICE:active_date -> DB2PROVIDER_OFFICE:active_date;
	DB2_OFFICE:add_to_panels -> DB2PROVIDER_IFTHEN10:tb;
	DB2_OFFICE:address1 -> CVXPROVIDER_CVX_ACTIVE_PRACTICE_OFFICES:address1 ;
	DB2_OFFICE:address1 -> CVXPROVIDER_DV_PRACTICE_OFFICE:address1 ;
	DB2_OFFICE:address1 -> CVXPROVIDER_DV_PRACTICE_OFFICE:address1;
	DB2_OFFICE:address1 -> DB2PROVIDER_OFFICE:address1;
	
	DB2_OFFICE:address2 -> CVXPROVIDER_CVX_ACTIVE_PRACTICE_OFFICES:address2 ;
	DB2_OFFICE:address2 -> CVXPROVIDER_DV_PRACTICE_OFFICE:address2 ;
	DB2_OFFICE:address2 -> CVXPROVIDER_DV_PRACTICE_OFFICE:address2;
	DB2_OFFICE:address2 -> DB2PROVIDER_OFFICE:address2;
	
	DB2_OFFICE:address3 -> DB2PROVIDER_OFFICE:address3;
	
	DB2_OFFICE:can_add_to_panels -> DB2PROVIDER_IFTHEN10:tb;
	DB2_OFFICE:city -> CVXPROVIDER_CVX_ACTIVE_PRACTICE_OFFICES:city 
	DB2_OFFICE:city -> CVXPROVIDER_DV_PRACTICE_OFFICE:city;
	DB2_OFFICE:city -> DB2PROVIDER_OFFICE:city;
	DB2_OFFICE:dba_name -> CVXPROVIDER_CVX_TMPOFFPRACT:dba_name ;
	DB2_OFFICE:dba_name -> CVXPROVIDER_DV_PRACTICE_OFFICE:dv_dba_name ;
	DB2_OFFICE:dba_name -> DB2PROVIDER_OFFICE:dba_name;
	DB2_OFFICE:deleted_date -> DB2PROVIDER_OFFICE:deleted_date;
	DB2_OFFICE:dispenses_glasses -> DB2PROVIDER_IFTHEN2:tb;
	DB2_OFFICE:dispenses_glasses -> DB2PROVIDER_IFTHEN3:tb;
	DB2_OFFICE:dispenses_glasses -> DB2PROVIDER_IFTHEN4:tb;
	DB2_OFFICE:dispenses_glasses -> DB2PROVIDER_IFTHEN19:tb ;
	DB2_OFFICE:dispenses_glasses -> DB2PROVIDER_IFTHEN20:tb ;
	DB2_OFFICE:dispenses_glasses -> DB2PROVIDER_IFTHEN20:tb;
	DB2_OFFICE:dispenses_glasses -> DB2PROVIDER_IFTHEN22:tb ;
	DB2_OFFICE:dispenses_glasses -> DB2PROVIDER_OFFICE:dispenses_glasses;
	DB2_OFFICE:does_ear_exams -> DB2PROVIDER_IFTHEN2:tb;
	DB2_OFFICE:does_ear_exams -> DB2PROVIDER_IFTHEN3:tb;
	DB2_OFFICE:does_ear_exams -> DB2PROVIDER_IFTHEN19:tb ;
	DB2_OFFICE:does_ear_exams -> DB2PROVIDER_IFTHEN20:tb ;
	DB2_OFFICE:does_ear_exams -> DB2PROVIDER_OFFICE:does_ear_exams;
	DB2_OFFICE:does_eye_exams -> DB2PROVIDER_IFTHEN2:tb;
	DB2_OFFICE:does_eye_exams -> DB2PROVIDER_IFTHEN3:tb;
	DB2_OFFICE:does_eye_exams -> DB2PROVIDER_IFTHEN4:tb;
	DB2_OFFICE:does_eye_exams -> DB2PROVIDER_IFTHEN19:tb ;
	DB2_OFFICE:does_eye_exams -> DB2PROVIDER_IFTHEN20:tb ;
	DB2_OFFICE:does_eye_exams -> DB2PROVIDER_IFTHEN20:tb;
	DB2_OFFICE:does_eye_exams -> DB2PROVIDER_IFTHEN22:tb ;
	DB2_OFFICE:does_eye_exams -> DB2PROVIDER_OFFICE:does_eye_exams;
	DB2_OFFICE:fax -> CVXPROVIDER_CVX_ACTIVE_PRACTICE_OFFICES:fax ;
	DB2_OFFICE:fax -> DB2PROVIDER_OFFICE:fax;
	DB2_OFFICE:fits_soft_cl -> DB2PROVIDER_IFTHEN2:tb;
	DB2_OFFICE:fits_soft_cl -> DB2PROVIDER_IFTHEN3:tb;
	DB2_OFFICE:fits_soft_cl -> DB2PROVIDER_IFTHEN4:tb;
	DB2_OFFICE:fits_soft_cl -> DB2PROVIDER_IFTHEN19:tb ;
	DB2_OFFICE:fits_soft_cl -> DB2PROVIDER_IFTHEN20:tb ;
	DB2_OFFICE:fits_soft_cl -> DB2PROVIDER_IFTHEN20:tb;
	DB2_OFFICE:fits_soft_cl -> DB2PROVIDER_IFTHEN22:tb ;
	DB2_OFFICE:fits_soft_cl -> DB2PROVIDER_OFFICE:fits_soft_cl;
	
	DB2_OFFICE:group_medicaid_id -> DB2PROVIDER_OFFICE:group_medicaid_id;
	DB2_OFFICE:group_medicaid_id -> DB2PROVIDER_tPROVIDER_MEDICAID:medicaid_number ;
	DB2_OFFICE:group_medicaid_id2 -> DB2PROVIDER_OFFICE:group_medicaid_id2;
	DB2_OFFICE:group_medicaid_id2 -> DB2PROVIDER_tPROVIDER_MEDICAID:medicaid_number ;
	DB2_OFFICE:group_medicaid_st -> DB2PROVIDER_tPROVIDER_MEDICAID:medicaid_state ;
	DB2_OFFICE:group_medicaid_st2 -> DB2PROVIDER_tPROVIDER_MEDICAID:medicaid_state ;
	DB2_OFFICE:group_npi_number -> CVXPROVIDER_CVX_TMPOFFPRACT:payee_npi ;
	DB2_OFFICE:group_npi_number -> CVXPROVIDER_DV_PRACTICE_OFFICE:npi_payee;
	DB2_OFFICE:group_npi_number -> CVXPROVIDER_DV_PRACTICE_OFFICE:npi_payee;
	DB2_OFFICE:group_npi_number -> DB2PROVIDER_OFFICE:group_npi_number;
	DB2_OFFICE:handicap_access -> DB2PROVIDER_OFFICE:handicap_access;
	DB2_OFFICE:hearing_aids -> DB2PROVIDER_OFFICE:hearing_aids;
	DB2_OFFICE:languages -> DB2PROVIDER_OFFICE:languages;
	DB2_OFFICE:laser_surgery -> DB2PROVIDER_IFTHEN2:tb;
	DB2_OFFICE:laser_surgery -> DB2PROVIDER_IFTHEN3:tb;
	DB2_OFFICE:laser_surgery -> DB2PROVIDER_IFTHEN19:tb ;
	DB2_OFFICE:laser_surgery -> DB2PROVIDER_IFTHEN20:tb ;
	DB2_OFFICE:laser_surgery -> DB2PROVIDER_IFTHEN20:tb;
	DB2_OFFICE:laser_surgery -> DB2PROVIDER_OFFICE:laser_surgery;
	DB2_OFFICE:name -> CVXPROVIDER_CVX_TMPOFFPRACT:offname ;
	DB2_OFFICE:name -> CVXPROVIDER_DV_PRACTICE_OFFICE:dv_pro_name ;
	##DB2_OFFICE:name -> CVXPROVIDER_DV_PRACTICE_OFFICE:dv_pro_name;
	DB2_OFFICE:name -> DB2PROVIDER_OFFICE:name;
	DB2_OFFICE:office_number -> DB2PROVIDER_IFTHEN10:tb ;
	DB2_OFFICE:office_number -> DB2PROVIDER_IFTHEN7:c1 ;
	DB2_OFFICE:office_number -> DB2PROVIDER_IFTHEN7:tb ;
	DB2_OFFICE:office_number -> DB2PROVIDER_IFTHEN9:tb ;
	DB2_OFFICE:office_number -> DB2PROVIDER_OFFICE:office_number;
	DB2_OFFICE:on_provider_list -> DB2PROVIDER_IFTHEN10:tb;
	DB2_OFFICE:phone -> CVXPROVIDER_CVX_ACTIVE_PRACTICE_OFFICES:phone ;
	DB2_OFFICE:phone -> DB2PROVIDER_OFFICE:phone;
	DB2_OFFICE:state_code -> CVXPROVIDER_DV_PRACTICE_OFFICE:state ;
	DB2_OFFICE:state_code -> CVXPROVIDER_DV_PRACTICE_OFFICE:state;
	DB2_OFFICE:state_code -> DB2PROVIDER_OFFICE:state_code;
	DB2_OFFICE:term_code -> DB2PROVIDER_OFFICE:term_code;
	DB2_OFFICE:term_date -> CVXPROVIDER_CVX_TMPOFFPRACT:term_date ;
	DB2_OFFICE:term_date -> DB2PROVIDER_OFFICE:term_date;
	DB2_OFFICE:zip -> CVXPROVIDER_CVX_ACTIVE_PRACTICE_OFFICES:zip ;
	DB2_OFFICE:zip -> CVXPROVIDER_DV_PRACTICE_OFFICE:zip ;
	DB2_OFFICE:zip -> DB2PROVIDER_OFFICE:zip;
	
	DB2_OFFICE_AUDIT_RQAR:office_number -> DB2PROVIDER_MISSING1:unknown;
	DB2_OFFICE_AUDIT_RQAR:review_date -> DB2PROVIDER_MISSING1:unknown;
	DB2_OFFICE_AUDIT_RQAR:review_type -> DB2PROVIDER_MISSING1:unknown;
	DB2_OFFICE_AUDIT_RQAR:reviewer -> DB2PROVIDER_MISSING1:unknown;
	
	DB2_PANEL:date_removed -> DB2PROVIDER_PANEL:date_removed;
	DB2_PANEL:exclude -> DB2PROVIDER_PANEL:exclude;
	DB2_PANEL:group_code -> DB2PROVIDER_PANEL:group_code;
	DB2_PANEL:office_number -> DB2PROVIDER_PANEL:office_number;
	DB2_PANEL:office_number -> DB2PROVIDER_tLASERPANELS:office_number;
	DB2_PANEL:panel_code -> DB2PROVIDER_PANEL:panel_code;
	DB2_PANEL:panel_code -> DB2PROVIDER_tLASERPANELS:panel_code;
	DB2_PANEL:temporary -> DB2PROVIDER_PANEL:temporary;
	DB2_PANEL:date_added -> DB2PROVIDER_PANEL:date_added;
	
	DB2_PANEL_ASSOCS:pas_date_added -> DB2PROVIDER_PANEL_ASSOCS:pas_date_added;
	DB2_PANEL_ASSOCS:pas_group -> DB2PROVIDER_PANEL_ASSOCS:pas_group;
	DB2_PANEL_ASSOCS:pas_office_number -> DB2PROVIDER_PANEL_ASSOCS:pas_office_number;
	DB2_PANEL_ASSOCS:pas_panel -> DB2PROVIDER_PANEL_ASSOCS:pas_panel;
	DB2_PANEL_ASSOCS:pas_pract_num -> DB2PROVIDER_PANEL_ASSOCS:pas_pract_num;
	DB2_PANEL_ASSOCS:pas_status -> DB2PROVIDER_PANEL_ASSOCS:pas_status;

	DB2_PAY_DISPENSE:payee_number -> DB2PROVIDER_PAY_DISPENSE:payee_number;
	DB2_PAY_DISPENSE:start_date -> CVXPROVIDER_PROVIDER_VENDOR_ASSIGN:eff_from;
	DB2_PAY_DISPENSE:start_date -> DB2PROVIDER_PAY_DISPENSE:start_date;
	
	DB2_PAYEE:deleted_date -> DB2PROVIDER_PAYEE:deleted_date;
	DB2_PAYEE:payee_number -> CVXPROVIDER_CVX_ACTIVE_VENDORS:vendor_ud;
	DB2_PAYEE:payee_number -> DB2PROVIDER_PAYEE:payee_number;
	DB2_PAYEE:payee_number -> DB2PROVIDER_tACTIVEVENDORS:vendor_ud;
	DB2_PAYEE:tax_id -> CVXPROVIDER_CVX_ACTIVE_VENDORS:tax_id;
	DB2_PAYEE:tax_id -> DB2PROVIDER_PAYEE:tax_id;
	
	DB2_PRACT_CREDENTIAL:attestation_date -> DB2PROVIDER_MISSING1:unknown;
	DB2_PRACT_CREDENTIAL:credential_date -> DB2PROVIDER_PRACT_CREDENTIAL:credential_date;
	DB2_PRACT_CREDENTIAL:credential_status -> DB2PROVIDER_PRACT_CREDENTIAL:credential_status;
	DB2_PRACT_CREDENTIAL:pract_cred_key -> DB2PROVIDER_PRACT_CREDENTIAL:pract_cred_key;
	DB2_PRACT_CREDENTIAL:practitioner_num -> DB2PROVIDER_PRACT_CREDENTIAL:practitioner_num;

	DB2_PRACT_LICENSE:expiration_date -> DB2PROVIDER_PRACT_LICENSE:expiration_date;
	DB2_PRACT_LICENSE:license_number -> DB2PROVIDER_PRACT_LICENSE:license_number;
	DB2_PRACT_LICENSE:license_state -> DB2PROVIDER_PRACT_LICENSE:license_state;
	DB2_PRACT_LICENSE:practitioner_num -> DB2PROVIDER_PRACT_LICENSE:practitioner_num;

	DB2_PRACTICE:medicaid_suffix -> DB2PROVIDER_PRACTICE:medicaid_suffix;
	DB2_PRACTICE:office_number -> DB2PROVIDER_tPRACTICE_XREF:office_number;
	DB2_PRACTICE:practitioner_num -> DB2PROVIDER_tPRACTICE_XREF:practitioner_num;
	DB2_PRACTICE:primary -> DB2PROVIDER_tPRACTICE_XREF:primary;
	DB2_PRACTICE:start_date -> DB2PROVIDER_tPRACTICE_XREF:start_date;
	DB2_PRACTICE:term_date -> DB2PROVIDER_tPRACTICE_XREF:term_date;
	
	DB2_PRACTITIONER:practitioner_num -> CVXPROVIDER_CVX_TMPOFFPRACT:practitioner_num;
	DB2_PRACTITIONER:practitioner_num -> DB2PROVIDER_PRACTITIONER:practitioner_num;
	DB2_PRACTITIONER:active_date -> CVXPROVIDER_CVX_TMPOFFPRACT:practitioner_active;
	DB2_PRACTITIONER:active_date -> DB2PROVIDER_PRACTITIONER:active_date;
	DB2_PRACTITIONER:term_code -> DB2PROVIDER_PRACTITIONER:term_code;
	DB2_PRACTITIONER:term_date -> CVXPROVIDER_CVX_TMPOFFPRACT:practitioner_term;
	DB2_PRACTITIONER:term_date -> DB2PROVIDER_PRACTITIONER:term_date;
	DB2_PRACTITIONER:deleted_date -> CVXPROVIDER_CVX_TMPOFFPRACT:practitioner_deleted;
	DB2_PRACTITIONER:deleted_date -> DB2PROVIDER_PRACTITIONER:deleted_date;
	DB2_PRACTITIONER:npi_number -> CVXPROVIDER_CVX_TMPOFFPRACT:prac_npi;
	DB2_PRACTITIONER:npi_number -> DB2PROVIDER_PRACTITIONER:npi_number;
	DB2_PRACTITIONER:last_name -> CVXPROVIDER_CVX_TMPOFFPRACT:last_name;
	DB2_PRACTITIONER:last_name -> DB2PROVIDER_PRACTITIONER:last_name;
	DB2_PRACTITIONER:first_name -> CVXPROVIDER_CVX_TMPOFFPRACT:first_name;
	DB2_PRACTITIONER:first_name -> DB2PROVIDER_PRACTITIONER:first_name;
	DB2_PRACTITIONER:middle_name -> CVXPROVIDER_CVX_TMPOFFPRACT:middle_name;
	DB2_PRACTITIONER:middle_name -> DB2PROVIDER_PRACTITIONER:middle_name;
	DB2_PRACTITIONER:pedigree -> CVXPROVIDER_CVX_TMPOFFPRACT:pedigree;
	DB2_PRACTITIONER:pedigree -> DB2PROVIDER_PRACTITIONER:pedigree;
	DB2_PRACTITIONER:birth_date -> DB2PROVIDER_PRACTITIONER:birth_date;
	DB2_PRACTITIONER:gender_code -> CVXPROVIDER_CVX_TMPOFFPRACT:gender_code;
	DB2_PRACTITIONER:gender_code -> DB2PROVIDER_PRACTITIONER:gender_code;
	DB2_PRACTITIONER:board_cert_date -> DB2PROVIDER_PRACTITIONER:board_cert_date;
	DB2_PRACTITIONER:board_recert_date -> DB2PROVIDER_PRACTITIONER:board_recert_date;
	DB2_PRACTITIONER:languages -> DB2PROVIDER_PRACTITIONER:languages;
	DB2_PRACTITIONER:ssn -> DB2PROVIDER_PRACTITIONER:ssn;
	DB2_PRACTITIONER:medicaid_number1 -> DB2PROVIDER_PRACTITIONER:medicaid_number1;
	DB2_PRACTITIONER:medicaid_number2 -> DB2PROVIDER_PRACTITIONER:medicaid_number2;
	
	DB2_PROV_CHANGE_LOG:change_source -> DB2PROVIDER_MISSING1:unknown;
	DB2_PROV_CHANGE_LOG:change_source_id -> DB2PROVIDER_MISSING1:unknown;
	DB2_PROV_CHANGE_LOG:change_time_stamp -> DB2PROVIDER_MISSING1:unknown;
	DB2_PROV_CHANGE_LOG:field_code -> DB2PROVIDER_MISSING1:unknown;	
		
	DB2_ZIP_GEO:county -> DB2PROVIDER_MISSING1:unknown;
	DB2_ZIP_GEO:county_fips -> DB2PROVIDER_MISSING1:unknown;
	DB2_ZIP_GEO:zip -> DB2PROVIDER_MISSING1:unknown;

	DB2_STATEFIPSCODE:state_code -> DB2PROVIDER_MISSING1:unknown;
	DB2_STATEFIPSCODE:state_fips_code -> DB2PROVIDER_MISSING1:unknown;

	DB2_QA_MED_NEC_PRAP:addtnl_material -> DB2PROVIDER_MISSING2:unknown;
	DB2_QA_MED_NEC_PRAP:cv1_emp_first_name -> DB2PROVIDER_MISSING2:unknown;
	DB2_QA_MED_NEC_PRAP:cv1_emp_group -> DB2PROVIDER_MISSING2:unknown;
	DB2_QA_MED_NEC_PRAP:cv1_emp_id -> DB2PROVIDER_MISSING2:unknown;
	DB2_QA_MED_NEC_PRAP:cv1_emp_last_name -> DB2PROVIDER_MISSING2:unknown;
	DB2_QA_MED_NEC_PRAP:cv1_emp_mid_init -> DB2PROVIDER_MISSING2:unknown;
	DB2_QA_MED_NEC_PRAP:cv1_emp_subgroup -> DB2PROVIDER_MISSING2:unknown;
	DB2_QA_MED_NEC_PRAP:cv1_voucher_num -> DB2PROVIDER_MISSING2:unknown;
	DB2_QA_MED_NEC_PRAP:date_issued -> DB2PROVIDER_MISSING2:unknown;
	DB2_QA_MED_NEC_PRAP:is_addtn_exam -> DB2PROVIDER_MISSING2:unknown;
	DB2_QA_MED_NEC_PRAP:is_addtn_material -> DB2PROVIDER_MISSING2:unknown;
	DB2_QA_MED_NEC_PRAP:is_contact_lens -> DB2PROVIDER_MISSING2:unknown;
	DB2_QA_MED_NEC_PRAP:is_replglas_loss -> DB2PROVIDER_MISSING2:unknown;
	DB2_QA_MED_NEC_PRAP:is_replglas_rx_chg -> DB2PROVIDER_MISSING2:unknown;
	DB2_QA_MED_NEC_PRAP:qa_mn_prap_num -> DB2PROVIDER_MISSING2:unknown;
	DB2_QA_MED_NEC_PRAP:reason_for_auth -> DB2PROVIDER_MISSING2:unknown;
	DB2_QA_MED_NEC_PRAP:recvd_date -> DB2PROVIDER_MISSING2:unknown;
	DB2_QA_MED_NEC_PRAP:status -> DB2PROVIDER_MISSING2:unknown;
	DB2_QA_MED_NEC_PRAP:status_date -> DB2PROVIDER_MISSING2:unknown;
}